{
  "C:\\Program Files (x86)\\Java\\jre7\\lib\\rt.jar": {
    "coordinate": "jre:jre:zip:call:1.0.0",
    "location": "C:\\Program Files (x86)\\Java\\jre7\\lib\\rt.jar",
    "status": "RESOLVED",
    "error": "No class path info available for \u0027C:\\Program Files (x86)\\Java\\jre7\\lib\\rt.jar\u0027. Skipped."
  },
  "C:\\Users\\cpsai_000\\Documents\\Programming\\Testing\\src": {
    "location": "C:\\Users\\cpsai_000\\Documents\\Programming\\Testing\\src",
    "status": "UNRESOLVED",
    "error": "No class path info available for \u0027C:\\Users\\cpsai_000\\Documents\\Programming\\Testing\\src\u0027. Skipped."
  }
}