<?xml version="1.0" encoding="UTF-8"?>
<session version="1.0">
<refactoring accessors="true" comment="Delete element from project &apos;Unit 2 - Lab 1&apos;&#x0D;&#x0A;- Original project: &apos;Unit 2 - Lab 1&apos;&#x0D;&#x0A;- Original element: &apos;Unit 2 - Lab 1/Lab 2&apos;" description="Delete element" element1="/Lab 2" elements="1" flags="589830" id="org.eclipse.jdt.ui.delete" resources="0" stamp="1412041816816" subPackages="false" version="1.0"/>
</session>